#device;name;ip;description
ARestDevice;Green Sun Czarna Walizka;192.168.200.51;Czarna walizka,czujnik temperatury,czujnik natężenia światła, taśma led
#resource;name;device_resource;read_only;min_value;max_value
IntegerResource;Czujnik światła;light;yes;0;1024
#resource;name;device_resource;read_only;min_value;max_value
FloatResource;Czujnik temperatury;temperature;yes;-55.0;125.0
#resource;name;device_resource;read_only;min_value;max_value
IntegerResource;Czerwony;red;no;0;255
#resource;name;device_resource;read_only;min_value;max_value
IntegerResource;Zielony;green;no;0;255
#resource;name;device_resource;read_only;min_value;max_value
IntegerResource;Niebieski;blue;no;0;255
